%YAML 1.1
%TAG !u! tag:unity3d.com,2011:
--- !u!74 &7400000
AnimationClip:
  m_ObjectHideFlags: 0
  m_PrefabParentObject: {fileID: 0}
  m_PrefabInternal: {fileID: 0}
  m_Name: threeD-idle
  serializedVersion: 6
  m_Legacy: 0
  m_Compressed: 0
  m_UseHighQualityCurve: 1
  m_RotationCurves: []
  m_CompressedRotationCurves: []
  m_EulerCurves: []
  m_PositionCurves: []
  m_ScaleCurves:
  - curve:
      serializedVersion: 2
      m_Curve:
      - time: 0
        value: {x: 0.075, y: 0.075, z: 0.075}
        inSlope: {x: 0.0042857123, y: -0.0028571486, z: 0.0042857123}
        outSlope: {x: 0.0042857123, y: -0.0028571486, z: 0.0042857123}
        tangentMode: 0
      - time: 0.7
        value: {x: 0.078, y: 0.073, z: 0.078}
        inSlope: {x: -0.0028571414, y: 0.0019047656, z: -0.0028571414}
        outSlope: {x: -0.0028571414, y: 0.0019047656, z: -0.0028571414}
        tangentMode: 0
      - time: 1
        value: {x: 0.075, y: 0.075, z: 0.075}
        inSlope: {x: -0.009999995, y: 0.00666668, z: -0.009999995}
        outSlope: {x: -0.009999995, y: 0.00666668, z: -0.009999995}
        tangentMode: 0
      m_PreInfinity: 2
      m_PostInfinity: 2
      m_RotationOrder: 4
    path: default
  m_FloatCurves: []
  m_PPtrCurves: []
  m_SampleRate: 60
  m_WrapMode: 0
  m_Bounds:
    m_Center: {x: 0, y: 0, z: 0}
    m_Extent: {x: 0, y: 0, z: 0}
  m_ClipBindingConstant:
    genericBindings:
    - path: 3814588639
      attribute: 3
      script: {fileID: 0}
      classID: 4
      customType: 0
      isPPtrCurve: 0
    pptrCurveMapping: []
  m_AnimationClipSettings:
    serializedVersion: 2
    m_AdditiveReferencePoseClip: {fileID: 0}
    m_AdditiveReferencePoseTime: 0
    m_StartTime: 0
    m_StopTime: 1
    m_OrientationOffsetY: 0
    m_Level: 0
    m_CycleOffset: 0
    m_HasAdditiveReferencePose: 0
    m_LoopTime: 1
    m_LoopBlend: 0
    m_LoopBlendOrientation: 0
    m_LoopBlendPositionY: 0
    m_LoopBlendPositionXZ: 0
    m_KeepOriginalOrientation: 0
    m_KeepOriginalPositionY: 1
    m_KeepOriginalPositionXZ: 0
    m_HeightFromFeet: 0
    m_Mirror: 0
  m_EditorCurves:
  - curve:
      serializedVersion: 2
      m_Curve:
      - time: 0
        value: 0.075
        inSlope: 0.0042857123
        outSlope: 0.0042857123
        tangentMode: 10
      - time: 0.7
        value: 0.078
        inSlope: -0.0028571414
        outSlope: -0.0028571414
        tangentMode: 10
      - time: 1
        value: 0.075
        inSlope: -0.009999995
        outSlope: -0.009999995
        tangentMode: 10
      m_PreInfinity: 2
      m_PostInfinity: 2
      m_RotationOrder: 4
    attribute: m_LocalScale.x
    path: default
    classID: 4
    script: {fileID: 0}
  - curve:
      serializedVersion: 2
      m_Curve:
      - time: 0
        value: 0.075
        inSlope: -0.0028571486
        outSlope: -0.0028571486
        tangentMode: 10
      - time: 0.7
        value: 0.073
        inSlope: 0.0019047656
        outSlope: 0.0019047656
        tangentMode: 10
      - time: 1
        value: 0.075
        inSlope: 0.00666668
        outSlope: 0.00666668
        tangentMode: 10
      m_PreInfinity: 2
      m_PostInfinity: 2
      m_RotationOrder: 4
    attribute: m_LocalScale.y
    path: default
    classID: 4
    script: {fileID: 0}
  - curve:
      serializedVersion: 2
      m_Curve:
      - time: 0
        value: 0.075
        inSlope: 0.0042857123
        outSlope: 0.0042857123
        tangentMode: 10
      - time: 0.7
        value: 0.078
        inSlope: -0.0028571414
        outSlope: -0.0028571414
        tangentMode: 10
      - time: 1
        value: 0.075
        inSlope: -0.009999995
        outSlope: -0.009999995
        tangentMode: 10
      m_PreInfinity: 2
      m_PostInfinity: 2
      m_RotationOrder: 4
    attribute: m_LocalScale.z
    path: default
    classID: 4
    script: {fileID: 0}
  m_EulerEditorCurves: []
  m_HasGenericRootTransform: 0
  m_HasMotionFloatCurves: 0
  m_GenerateMotionCurves: 0
  m_Events: []
