%YAML 1.1
%TAG !u! tag:unity3d.com,2011:
--- !u!1045 &1
EditorBuildSettings:
  m_ObjectHideFlags: 0
  serializedVersion: 2
  m_Scenes:
  - enabled: 1
    path: Assets/CorgiEngine/Common/SplashScreen.unity
  - enabled: 1
    path: Assets/CorgiEngine/Common/LoadingScreen.unity
  - enabled: 1
    path: Assets/CorgiEngine/Common/StartScreen.unity
  - enabled: 1
    path: Assets/CorgiEngine/Demos/Corgi2D/Mesa1.unity
  - enabled: 1
    path: Assets/CorgiEngine/Demos/Corgi2D/Mesa2.unity
  - enabled: 1
    path: Assets/CorgiEngine/Demos/Corgi2D/Mountains.unity
  - enabled: 1
    path: Assets/CorgiEngine/Demos/Corgi2D/Lava.unity
  - enabled: 1
    path: Assets/CorgiEngine/Demos/Pixel/PixelLevel.unity
  - enabled: 1
    path: Assets/CorgiEngine/Demos/Brobro/BrobroLevel.unity
  - enabled: 1
    path: Assets/CorgiEngine/Demos/Corgi2D/Sandbox.unity
  - enabled: 1
    path: Assets/CorgiEngine/Demos/SuperHipsterBros/HipsterLevel.unity
  - enabled: 1
    path: Assets/CorgiEngine/Demos/Corgi3D/3D Level.unity
  - enabled: 1
    path: Assets/CorgiEngine/Demos/LevelSelection/LevelSelection.unity
  - enabled: 1
    path: Assets/CorgiEngine/Demos/Minimal/MinimalLevel.unity
  - enabled: 1
    path: Assets/CorgiEngine/Demos/Minimal/FeaturesPlatforms.unity
